{"name":"Consulta el listado de usuario que est치n creados en el sitio","id":"consultar-los-usuarios-creados-en-el-sitio;consulta-el-listado-de-usuario-que-est치n-creados-en-el-sitio","testSteps":[{"number":1,"description":"Cuando consulta el listado de usuarios","duration":285,"startTime":"2024-02-08T22:00:16.007651-05:00[America/Bogota]","result":"SUCCESS","precondition":false,"level":0,"children":[{"number":2,"description":"Actor obtener listado usuarios","duration":272,"startTime":"2024-02-08T22:00:16.019354-05:00[America/Bogota]","result":"SUCCESS","precondition":false,"level":1,"children":[{"number":3,"description":"actor executes a GET on the resource users/","duration":259,"startTime":"2024-02-08T22:00:16.031693-05:00[America/Bogota]","result":"SUCCESS","precondition":false,"level":2,"children":[{"number":4,"description":"GET https://reqres.in/api/users/?page\u003d2","duration":0,"startTime":"2024-02-08T22:00:16.291412-05:00[America/Bogota]","result":"SUCCESS","restQuery":{"method":"GET","path":"https://reqres.in/api/users/?page\u003d2","content":"","contentType":"null","requestHeaders":"Accept\u003d*/*","requestCookies":"","responseHeaders":"Date: Fri, 09 Feb 2024 03:00:16 GMT\nContent-Type: application/json; charset\u003dutf-8\nTransfer-Encoding: chunked\nConnection: keep-alive\nReport-To: {\"group\":\"heroku-nel\",\"max_age\":3600,\"endpoints\":[{\"url\":\"https://nel.heroku.com/reports?ts\u003d1707413280\u0026sid\u003dc4c9725f-1ab0-44d8-820f-430df2718e11\u0026s\u003dtwvqffLF%2BbbWL3n%2BI2ZHI9%2BLTHjxNErF1HFBxoe6p08%3D\"}]}\nReporting-Endpoints: heroku-nel\u003dhttps://nel.heroku.com/reports?ts\u003d1707413280\u0026sid\u003dc4c9725f-1ab0-44d8-820f-430df2718e11\u0026s\u003dtwvqffLF%2BbbWL3n%2BI2ZHI9%2BLTHjxNErF1HFBxoe6p08%3D\nNel: {\"report_to\":\"heroku-nel\",\"max_age\":3600,\"success_fraction\":0.005,\"failure_fraction\":0.05,\"response_headers\":[\"Via\"]}\nX-Powered-By: Express\nAccess-Control-Allow-Origin: *\nEtag: W/\"406-ut0vzoCuidvyMf8arZpMpJ6ZRDw\"\nVia: 1.1 vegur\nCache-Control: max-age\u003d14400\nCF-Cache-Status: HIT\nAge: 559\nVary: Accept-Encoding\nServer: cloudflare\nCF-RAY: 8528dc714ed17476-MIA\nContent-Encoding: gzip","responseCookies":"","responseBody":"{\n    \"page\": 2,\n    \"per_page\": 6,\n    \"total\": 12,\n    \"total_pages\": 2,\n    \"data\": [\n        {\n            \"id\": 7,\n            \"email\": \"michael.lawson@reqres.in\",\n            \"first_name\": \"Michael\",\n            \"last_name\": \"Lawson\",\n            \"avatar\": \"https://reqres.in/img/faces/7-image.jpg\"\n        },\n        {\n            \"id\": 8,\n            \"email\": \"lindsay.ferguson@reqres.in\",\n            \"first_name\": \"Lindsay\",\n            \"last_name\": \"Ferguson\",\n            \"avatar\": \"https://reqres.in/img/faces/8-image.jpg\"\n        },\n        {\n            \"id\": 9,\n            \"email\": \"tobias.funke@reqres.in\",\n            \"first_name\": \"Tobias\",\n            \"last_name\": \"Funke\",\n            \"avatar\": \"https://reqres.in/img/faces/9-image.jpg\"\n        },\n        {\n            \"id\": 10,\n            \"email\": \"byron.fields@reqres.in\",\n            \"first_name\": \"Byron\",\n            \"last_name\": \"Fields\",\n            \"avatar\": \"https://reqres.in/img/faces/10-image.jpg\"\n        },\n        {\n            \"id\": 11,\n            \"email\": \"george.edwards@reqres.in\",\n            \"first_name\": \"George\",\n            \"last_name\": \"Edwards\",\n            \"avatar\": \"https://reqres.in/img/faces/11-image.jpg\"\n        },\n        {\n            \"id\": 12,\n            \"email\": \"rachel.howell@reqres.in\",\n            \"first_name\": \"Rachel\",\n            \"last_name\": \"Howell\",\n            \"avatar\": \"https://reqres.in/img/faces/12-image.jpg\"\n        }\n    ],\n    \"support\": {\n        \"url\": \"https://reqres.in/#support-heading\",\n        \"text\": \"To keep ReqRes free, contributions towards server costs are appreciated!\"\n    }\n}","statusCode":200},"precondition":false,"level":3}]}]}]},{"number":5,"description":"Entonces debe ver cada usuario con sus caracteristicas","duration":36,"startTime":"2024-02-08T22:00:16.293285-05:00[America/Bogota]","result":"SUCCESS","precondition":false,"level":0,"children":[{"number":6,"description":"El c\u0026oacute;digo de respuesta es 200","duration":33,"startTime":"2024-02-08T22:00:16.295032-05:00[America/Bogota]","result":"SUCCESS","precondition":false,"level":1}]}],"userStory":{"id":"consultar-los-usuarios-creados-en-el-sitio","storyName":"Consultar los usuarios creados en el sitio","path":"ObtenerUsuarios.feature","narrative":"  Yo como flujo de consulta\n  quiero validar que permita retornar la informaci칩n del usuario\n  para que exponga todos los datos","type":"feature"},"featureTag":{"name":"Consultar los usuarios creados en el sitio","type":"feature","displayName":"Consultar los usuarios creados en el sitio"},"title":"Consulta el listado de usuario que est치n creados en el sitio","tags":[{"name":"Consultar los usuarios creados en el sitio","type":"feature","displayName":"Consultar los usuarios creados en el sitio"},{"name":"ObtenerListadoUsuarios","type":"tag","displayName":"ObtenerListadoUsuarios"}],"startTime":"2024-02-08T22:00:16.000254-05:00[America/Bogota]","duration":330,"projectKey":"","isManualTestingUpToDate":false,"manual":false,"testSource":"Cucumber","actors":[{"name":"actor","can":["browse the web","call an API at https://reqres.in/api/"]}],"result":"SUCCESS"}